%YAML 1.1
%TAG !u! tag:unity3d.com,2011:
--- !u!221 &22100000
AnimatorOverrideController:
  m_ObjectHideFlags: 0
  m_PrefabParentObject: {fileID: 0}
  m_PrefabInternal: {fileID: 0}
  m_Name: Calor
  m_Controller: {fileID: 9100000, guid: 91d93dec62329794fbaad5fa2f805ebe, type: 2}
  m_Clips:
  - m_OriginalClip: {fileID: 7400000, guid: 0841dd3fbf8436544bc7dc7351edd125, type: 2}
    m_OverrideClip: {fileID: 7400000, guid: ceb8495ce56bb8f45bb50286ceddd215, type: 2}
  - m_OriginalClip: {fileID: 7400000, guid: 602411cc8f9de19479d3a2dedf5543b1, type: 2}
    m_OverrideClip: {fileID: 7400000, guid: a9e2e71d2fac1894a99b57c012fe94b4, type: 2}
  - m_OriginalClip: {fileID: 7400000, guid: 23fabf1279a0b15409e7ec9a29b7d056, type: 2}
    m_OverrideClip: {fileID: 7400000, guid: 990eee75c5c985442a99c8e7c8799bde, type: 2}
  - m_OriginalClip: {fileID: 7400000, guid: b91c82d476ddc4f44aece3a9919c277d, type: 2}
    m_OverrideClip: {fileID: 7400000, guid: c2dc37148536e0b4e9936edf3d5b6640, type: 2}
