%YAML 1.1
%TAG !u! tag:unity3d.com,2011:
--- !u!221 &22100000
AnimatorOverrideController:
  m_ObjectHideFlags: 0
  m_PrefabParentObject: {fileID: 0}
  m_PrefabInternal: {fileID: 0}
  m_Name: ComoSeSente
  m_Controller: {fileID: 9100000, guid: 91d93dec62329794fbaad5fa2f805ebe, type: 2}
  m_Clips:
  - m_OriginalClip: {fileID: 7400000, guid: 0841dd3fbf8436544bc7dc7351edd125, type: 2}
    m_OverrideClip: {fileID: 7400000, guid: 0382bfc1676550c428849f4de3302a70, type: 2}
  - m_OriginalClip: {fileID: 7400000, guid: 602411cc8f9de19479d3a2dedf5543b1, type: 2}
    m_OverrideClip: {fileID: 7400000, guid: 479549ba4e8e4de41a15743282269d11, type: 2}
  - m_OriginalClip: {fileID: 7400000, guid: 23fabf1279a0b15409e7ec9a29b7d056, type: 2}
    m_OverrideClip: {fileID: 7400000, guid: d664f60cfdb5bfe44bf02635576227b7, type: 2}
  - m_OriginalClip: {fileID: 7400000, guid: b91c82d476ddc4f44aece3a9919c277d, type: 2}
    m_OverrideClip: {fileID: 7400000, guid: 0a4b1616245ebad4399c5a7317b56178, type: 2}
