%YAML 1.1
%TAG !u! tag:unity3d.com,2011:
--- !u!221 &22100000
AnimatorOverrideController:
  m_ObjectHideFlags: 0
  m_PrefabParentObject: {fileID: 0}
  m_PrefabInternal: {fileID: 0}
  m_Name: OSeuProblemaFoiResolvido
  m_Controller: {fileID: 9100000, guid: 91d93dec62329794fbaad5fa2f805ebe, type: 2}
  m_Clips:
  - m_OriginalClip: {fileID: 7400000, guid: 0841dd3fbf8436544bc7dc7351edd125, type: 2}
    m_OverrideClip: {fileID: 7400000, guid: a37289aaf64af6b4c9b54e4f290176ec, type: 2}
  - m_OriginalClip: {fileID: 7400000, guid: 602411cc8f9de19479d3a2dedf5543b1, type: 2}
    m_OverrideClip: {fileID: 7400000, guid: 652b88c058871eb46bddcc8ee94ec46e, type: 2}
  - m_OriginalClip: {fileID: 7400000, guid: 23fabf1279a0b15409e7ec9a29b7d056, type: 2}
    m_OverrideClip: {fileID: 7400000, guid: 29b008b3464c67b4a87c9f6608040875, type: 2}
  - m_OriginalClip: {fileID: 7400000, guid: b91c82d476ddc4f44aece3a9919c277d, type: 2}
    m_OverrideClip: {fileID: 7400000, guid: 0f09e4e4372414549901a13c520442ca, type: 2}
