%YAML 1.1
%TAG !u! tag:unity3d.com,2011:
--- !u!221 &22100000
AnimatorOverrideController:
  m_ObjectHideFlags: 0
  m_PrefabParentObject: {fileID: 0}
  m_PrefabInternal: {fileID: 0}
  m_Name: Nao
  m_Controller: {fileID: 9100000, guid: 91d93dec62329794fbaad5fa2f805ebe, type: 2}
  m_Clips:
  - m_OriginalClip: {fileID: 7400000, guid: 0841dd3fbf8436544bc7dc7351edd125, type: 2}
    m_OverrideClip: {fileID: 7400000, guid: 5a6bc5089696e9845a55aa03ea1f4ca1, type: 2}
  - m_OriginalClip: {fileID: 7400000, guid: 602411cc8f9de19479d3a2dedf5543b1, type: 2}
    m_OverrideClip: {fileID: 7400000, guid: e5e3839a89280c14998ce22041a1f7f0, type: 2}
  - m_OriginalClip: {fileID: 7400000, guid: 23fabf1279a0b15409e7ec9a29b7d056, type: 2}
    m_OverrideClip: {fileID: 7400000, guid: d9957d64923264540a78e52e85b59fdb, type: 2}
  - m_OriginalClip: {fileID: 7400000, guid: b91c82d476ddc4f44aece3a9919c277d, type: 2}
    m_OverrideClip: {fileID: 7400000, guid: d2cc7c392076ff349ac1ddd1dede1266, type: 2}
