%YAML 1.1
%TAG !u! tag:unity3d.com,2011:
--- !u!221 &22100000
AnimatorOverrideController:
  m_ObjectHideFlags: 0
  m_PrefabParentObject: {fileID: 0}
  m_PrefabInternal: {fileID: 0}
  m_Name: Talk_SemFundo
  m_Controller: {fileID: 9100000, guid: 969ae671e14d3e645a88910df47293f0, type: 2}
  m_Clips:
  - m_OriginalClip: {fileID: 7400000, guid: 07072cfa6c4aedc41bcf54a5a1a3bad7, type: 2}
    m_OverrideClip: {fileID: 7400000, guid: 87be048486214fc48a71f79bab3f1a8f, type: 2}
