%YAML 1.1
%TAG !u! tag:unity3d.com,2011:
--- !u!221 &22100000
AnimatorOverrideController:
  m_ObjectHideFlags: 0
  m_PrefabParentObject: {fileID: 0}
  m_PrefabInternal: {fileID: 0}
  m_Name: MembrosSuperiorers
  m_Controller: {fileID: 9100000, guid: 91d93dec62329794fbaad5fa2f805ebe, type: 2}
  m_Clips:
  - m_OriginalClip: {fileID: 7400000, guid: 0841dd3fbf8436544bc7dc7351edd125, type: 2}
    m_OverrideClip: {fileID: 7400000, guid: 648a94b6b610d0346bea4b398a46d384, type: 2}
  - m_OriginalClip: {fileID: 7400000, guid: 602411cc8f9de19479d3a2dedf5543b1, type: 2}
    m_OverrideClip: {fileID: 7400000, guid: d5f9284a8113b8649baa22b6fe649a22, type: 2}
  - m_OriginalClip: {fileID: 7400000, guid: 23fabf1279a0b15409e7ec9a29b7d056, type: 2}
    m_OverrideClip: {fileID: 7400000, guid: fb18f4af92d7b8a429c1f25a2d6732b4, type: 2}
  - m_OriginalClip: {fileID: 7400000, guid: b91c82d476ddc4f44aece3a9919c277d, type: 2}
    m_OverrideClip: {fileID: 7400000, guid: 462af7c5bcdf38f4d9712e793641e263, type: 2}
